<?xml version="1.0" encoding="utf-8"?>
<!-- Generator: Adobe Illustrator 19.0.0, SVG Export Plug-In . SVG Version: 6.00 Build 0)  -->
<svg version="1.1" id="Calque_1" xmlns="http://www.w3.org/2000/svg" xmlns:xlink="http://www.w3.org/1999/xlink" x="0px" y="0px"
	 viewBox="0 0 30 50" width="30px" height="50px" style="enable-background:new 0 0 30 50;" xml:space="preserve">
<style type="text/css">
	.st0{fill:#6EBA44;}
</style>
<g id="XMLID_1_">
	<path class="st0" d="M2.3,50C1,50,0,49,0,47.8V2.2C0,1,1,0,2.3,0h25.5C29,0,30,1,30,2.2v45.5c0,1.2-1,2.2-2.3,2.2H2.3z M1.1,47.8
		c0,0.6,0.5,1.1,1.1,1.1h25.5c0.6,0,1.1-0.5,1.1-1.1v-5.4H26c-0.3,0-0.6-0.2-0.6-0.5c0-0.3,0.2-0.5,0.6-0.5h2.8V7.8H9
		c-0.3,0-0.6-0.2-0.6-0.5C8.5,7,8.7,6.7,9,6.7h19.8V2.2c0-0.6-0.5-1.1-1.1-1.1H2.3c-0.6,0-1.1,0.5-1.1,1.1v4.5H4
		c0.3,0,0.6,0.2,0.6,0.5c0,0.3-0.2,0.5-0.6,0.5H1.1v33.5h19.8c0.3,0,0.6,0.2,0.6,0.5c0,0.3-0.2,0.5-0.6,0.5H1.1V47.8z"/>
	<path class="st0" d="M14.1,46.6c-0.3,0-0.6-0.2-0.6-0.5c0-0.3,0.2-0.5,0.6-0.5h1.7c0.3,0,0.6,0.2,0.6,0.5c0,0.3-0.2,0.5-0.6,0.5
		H14.1z"/>
</g>
</svg>
