<?xml version="1.0" encoding="utf-8"?>
<!-- Generator: Adobe Illustrator 19.0.0, SVG Export Plug-In . SVG Version: 6.00 Build 0)  -->
<svg version="1.1" id="Calque_1" xmlns="http://www.w3.org/2000/svg" xmlns:xlink="http://www.w3.org/1999/xlink" x="0px" y="0px"
	 viewBox="-277 401.9 40 38" style="enable-background:new -277 401.9 40 38;" xml:space="preserve">
<style type="text/css">
	.st0{fill:#FFFFFF;}
</style>
<path class="st0" d="M-270.6,439.9c-0.4,0-0.7-0.3-0.7-0.7v-22h-5c-0.3,0-0.5-0.2-0.6-0.5c-0.1-0.3,0-0.6,0.2-0.7l19.2-14
	c0.1-0.1,0.2-0.1,0.4-0.1s0.3,0,0.4,0.1l12.8,9.3v-4.9c0-0.4,0.3-0.7,0.7-0.7c0.4,0,0.7,0.3,0.7,0.7v5.8l5.1,3.7
	c0.2,0.2,0.3,0.5,0.2,0.7s-0.3,0.5-0.6,0.5h-5v22.1c0,0.4-0.3,0.7-0.7,0.7L-270.6,439.9L-270.6,439.9z M-274.2,415.9h3.6
	c0.4,0,0.7,0.3,0.7,0.7v22.1h25.9v-22.1c0-0.4,0.3-0.7,0.7-0.7h3.6l-17.2-12.5L-274.2,415.9z"/>
<path class="st0" d="M-259.3,431.2C-259.4,431.2-259.4,431.2-259.3,431.2c-0.3,0-0.6-0.2-0.7-0.4l-3.7-5.7c-0.1-0.2-0.2-0.4-0.1-0.6
	c0-0.2,0.2-0.4,0.4-0.5c0.1-0.1,0.3-0.1,0.4-0.1c0.3,0,0.5,0.1,0.7,0.4l3.2,4.9l9.1-8.6c0.1-0.1,0.4-0.2,0.6-0.2
	c0.2,0,0.4,0.1,0.6,0.3s0.2,0.4,0.2,0.6c0,0.2-0.1,0.4-0.3,0.6l-9.8,9.3C-258.9,431.1-259.1,431.2-259.3,431.2z"/>
</svg>
